{
  "datasetPath": "../datasets/rgbd_dataset_freiburg3_long_office_household",
  "platformIndex": 0,
  "deviceIndex": 1,
  "width": 640,
  "height": 480,
  "numLevels": 4,
  "to": 200,
  "mode": "MODE_PHOTOMETRIC_HUBER",
  "allowEarlyBreak": true
}
